[
    {
      "name": "Abbotsford",
      "timezone": 11
    },
    {
      "name": "Aberdeen",
      "timezone": 1
    },
    {
      "name": "Accra",
      "timezone": 0
    },
    {
      "name": "Addis Ababa",
      "timezone": 3
    },
    {
      "name": "Adelaide",
      "timezone": 10.5
    },
    {
      "name": "Albury",
      "timezone": 11
    },
    {
      "name": "Alice Springs",
      "timezone": 9.5
    },
    {
      "name": "Amman",
      "timezone": 3
    },
    {
      "name": "Amsterdam",
      "timezone": 2
    },
    {
      "name": "Anchorage",
      "timezone": -8
    },
    {
      "name": "Antofagasta",
      "timezone": -3
    },
    {
      "name": "Armidale",
      "timezone": 11
    },
    {
      "name": "Aspen",
      "timezone": -6
    },
    {
      "name": "Athens",
      "timezone": 3
    },
    {
      "name": "Atlanta",
      "timezone": -4
    },
    {
      "name": "Auckland",
      "timezone": 13
    },
    {
      "name": "Ayers Rock",
      "timezone": 13
    },
    {
      "name": "Bahrain",
      "timezone": 3
    },
    {
      "name": "Bali",
      "timezone": 8
    },
    {
      "name": "Ballina",
      "timezone": 10
    },
    {
      "name": "Baltimore",
      "timezone": -4
    },
    {
      "name": "Bangkok",
      "timezone": 7
    },
    {
      "name": "Barcaldine",
      "timezone": 10
    },
    {
      "name": "Barcelona",
      "timezone": 2
    },
    {
      "name": "Beijing",
      "timezone": 8
    },
    {
      "name": "Beirut",
      "timezone": 3
    },
    {
      "name": "Belfast",
      "timezone": 1
    },
    {
      "name": "Belo Horizonte",
      "timezone": -3
    },
    {
      "name": "Berlin",
      "timezone": 2
    },
    {
      "name": "Billings",
      "timezone": -6
    },
    {
      "name": "Birmingham",
      "timezone": 1
    },
    {
      "name": "Blackall",
      "timezone": 10
    },
    {
      "name": "Blenheim",
      "timezone": 12
    },
    {
      "name": "Bogota",
      "timezone": -5
    },
    {
      "name": "Boston",
      "timezone": -4
    },
    {
      "name": "Brisbane",
      "timezone": 10
    },
    {
      "name": "Broome",
      "timezone": 8
    },
    {
      "name": "Brussels",
      "timezone": 2
    },
    {
      "name": "Budapest",
      "timezone": 2
    },
    {
      "name": "Bundaberg",
      "timezone": 10
    },
    {
      "name": "Busselton",
      "timezone": 8
    },
    {
      "name": "Cairns",
      "timezone": 10
    },
    {
      "name": "Cairo",
      "timezone": 2
    },
    {
      "name": "Calgary",
      "timezone": -6
    },
    {
      "name": "Canberra",
      "timezone": 10
    },
    {
      "name": "Casablanca",
      "timezone": 1
    },
    {
      "name": "Changchun",
      "timezone": 8
    },
    {
      "name": "Changsha",
      "timezone": 8
    },
    {
      "name": "Charleville",
      "timezone": 10
    },
    {
      "name": "Charlotte",
      "timezone": -4
    },
    {
      "name": "Chengdu",
      "timezone": 8
    },
    {
      "name": "Chicago",
      "timezone": -5
    },
    {
      "name": "Chongqing",
      "timezone": 8
    },
    {
      "name": "Christchurch",
      "timezone": 12
    },
    {
      "name": "Cincinnati",
      "timezone": -4
    },
    {
      "name": "Cloncurry",
      "timezone": 1
    },
    {
      "name": "Coffs Harbour",
      "timezone": 10
    },
    {
      "name": "Colombo",
      "timezone": 5.5
    },
    {
      "name": "Copenhagen",
      "timezone": 2
    },
    {
      "name": "Curitiba",
      "timezone": -3
    },
    {
      "name": "Da Nang",
      "timezone": 7
    },
    {
      "name": "Dalian",
      "timezone": 8
    },
    {
      "name": "Dallas",
      "timezone": -5
    },
    {
      "name": "Dammam",
      "timezone": 3
    },
    {
      "name": "Darwin",
      "timezone": 9.5
    },
    {
      "name": "Delhi",
      "timezone": 5.5
    },
    {
      "name": "Denver",
      "timezone": -6
    },
    {
      "name": "Detroit",
      "timezone": -4
    },
    {
      "name": "Devonport",
      "timezone": 10
    },
    {
      "name": "Dili",
      "timezone": 9
    },
    {
      "name": "Dubai",
      "timezone": 4
    },
    {
      "name": "Dubbo",
      "timezone": 10
    },
    {
      "name": "Dublin",
      "timezone": 1
    },
    {
      "name": "Dunedin",
      "timezone": 12
    },
    {
      "name": "Edinburgh",
      "timezone": 1
    },
    {
      "name": "Edmonton",
      "timezone": -6
    },
    {
      "name": "Emerald",
      "timezone": -4
    },
    {
      "name": "Espiritu Santo",
      "timezone": -5
    },
    {
      "name": "Florianopolis",
      "timezone": -3
    },
    {
      "name": "Fort Mcmurray",
      "timezone": -6
    },
    {
      "name": "Fort St John",
      "timezone": 10
    },
    {
      "name": "Frankfurt",
      "timezone": 2
    },
    {
      "name": "Fukuoka",
      "timezone": 9
    },
    {
      "name": "Fuzhou",
      "timezone": 8
    },
    {
      "name": "Geneva",
      "timezone": 2
    },
    {
      "name": "Gisborne",
      "timezone": 13
    },
    {
      "name": "Gladstone",
      "timezone": 10
    },
    {
      "name": "Glasgow",
      "timezone": 1
    },
    {
      "name": "Gold Coast",
      "timezone": 10
    },
    {
      "name": "Grande Prairie",
      "timezone": -6
    },
    {
      "name": "Guangzhou",
      "timezone": 8
    },
    {
      "name": "Hamilton Island",
      "timezone": -3
    },
    {
      "name": "Hanoi",
      "timezone": 7
    },
    {
      "name": "Harbin",
      "timezone": 8
    },
    {
      "name": "Hervey Bay",
      "timezone": 10
    },
    {
      "name": "Ho Chi Minh City",
      "timezone": 7
    },
    {
      "name": "Hobart",
      "timezone": 10
    },
    {
      "name": "Hong Kong",
      "timezone": 8
    },
    {
      "name": "Honolulu",
      "timezone": -10
    },
    {
      "name": "Horn Island",
      "timezone": -8
    },
    {
      "name": "Houston",
      "timezone": -5
    },
    {
      "name": "Indianapolis",
      "timezone": -4
    },
    {
      "name": "Invercargill",
      "timezone": 12
    },
    {
      "name": "Istanbul",
      "timezone": 3
    },
    {
      "name": "Jakarta",
      "timezone": 7
    },
    {
      "name": "Jinan",
      "timezone": 8
    },
    {
      "name": "Johannesburg",
      "timezone": 2
    },
    {
      "name": "Kagoshima",
      "timezone": 9
    },
    {
      "name": "Kalgoorlie",
      "timezone": 8
    },
    {
      "name": "Karratha",
      "timezone": 8
    },
    {
      "name": "Kelowna",
      "timezone": -7
    },
    {
      "name": "Kerikeri",
      "timezone": 12
    },
    {
      "name": "Khartoum",
      "timezone": 2
    },
    {
      "name": "Kingscote",
      "timezone": 9.5
    },
    {
      "name": "Kinming",
      "timezone": 8
    },
    {
      "name": "Kiritimati",
      "timezone": 14
    },
    {
      "name": "Ko Samui",
      "timezone": 7
    },
    {
      "name": "Kochi",
      "timezone": 9
    },
    {
      "name": "Kuala Lumpur",
      "timezone": 8
    },
    {
      "name": "Kumamoto",
      "timezone": 8
    },
    {
      "name": "Kunming",
      "timezone": 8
    },
    {
      "name": "Kununurra",
      "timezone": 8
    },
    {
      "name": "Lampang",
      "timezone": 7
    },
    {
      "name": "Larnaca",
      "timezone": 3
    },
    {
      "name": "Las Vegas",
      "timezone": -7
    },
    {
      "name": "Launceston",
      "timezone": 1
    },
    {
      "name": "Learmonth",
      "timezone": 8
    },
    {
      "name": "Lima",
      "timezone": -5
    },
    {
      "name": "London",
      "timezone": 1
    },
    {
      "name": "Longreach",
      "timezone": 10
    },
    {
      "name": "Lord Howe Island",
      "timezone": 10.5
    },
    {
      "name": "Loreto",
      "timezone": -4
    },
    {
      "name": "Los Angeles",
      "timezone": -7
    },
    {
      "name": "Mackay",
      "timezone": 10
    },
    {
      "name": "Madrid",
      "timezone": 2
    },
    {
      "name": "Mahe Island",
      "timezone": 4
    },
    {
      "name": "Manchester",
      "timezone": 1
    },
    {
      "name": "Marseille",
      "timezone": 2
    },
    {
      "name": "Matsuyama",
      "timezone": 9
    },
    {
      "name": "Medan",
      "timezone": 7
    },
    {
      "name": "Melbourne",
      "timezone": 10
    },
    {
      "name": "Memphis",
      "timezone": -5
    },
    {
      "name": "Miami",
      "timezone": -4
    },
    {
      "name": "Milan",
      "timezone": 2
    },
    {
      "name": "Mildura",
      "timezone": 10
    },
    {
      "name": "Minneapolis",
      "timezone": -5
    },
    {
      "name": "Miyazaki",
      "timezone": 9
    },
    {
      "name": "Montevideo",
      "timezone": -3
    },
    {
      "name": "Moranbah",
      "timezone": 10
    },
    {
      "name": "Moree",
      "timezone": 10
    },
    {
      "name": "Mount Isa",
      "timezone": 10
    },
    {
      "name": "Mulhouse",
      "timezone": 2
    },
    {
      "name": "Mumbai",
      "timezone": 5.5
    },
    {
      "name": "Munich",
      "timezone": 2
    },
    {
      "name": "Muscat",
      "timezone": 4
    },
    {
      "name": "Nadi",
      "timezone": 12
    },
    {
      "name": "Nagasaki",
      "timezone": 9
    },
    {
      "name": "Nairobi",
      "timezone": 3
    },
    {
      "name": "Nanchang",
      "timezone": 8
    },
    {
      "name": "Nanjing",
      "timezone": 8
    },
    {
      "name": "Napier-Hastings",
      "timezone": 12
    },
    {
      "name": "Nelson",
      "timezone": 13
    },
    {
      "name": "New Orleans",
      "timezone": -4
    },
    {
      "name": "New Plymouth",
      "timezone": 12
    },
    {
      "name": "New York",
      "timezone": -4
    },
    {
      "name": "Newcastle",
      "timezone": 10
    },
    {
      "name": "Newman",
      "timezone": 8
    },
    {
      "name": "Nhulunbuy",
      "timezone": 9.5
    },
    {
      "name": "Ningbo",
      "timezone": 8
    },
    {
      "name": "Oita",
      "timezone": 9
    },
    {
      "name": "Okinawa",
      "timezone": 9
    },
    {
      "name": "Orange",
      "timezone": 10
    },
    {
      "name": "Orlando",
      "timezone": -4
    },
    {
      "name": "Osaka",
      "timezone": 9
    },
    {
      "name": "Oslo",
      "timezone": 2
    },
    {
      "name": "Palm Springs",
      "timezone": -7
    },
    {
      "name": "Palmerston North",
      "timezone": 12
    },
    {
      "name": "Paraburdoo",
      "timezone": 8
    },
    {
      "name": "Paris",
      "timezone": 2
    },
    {
      "name": "Penang",
      "timezone": 8
    },
    {
      "name": "Perth",
      "timezone": 8
    },
    {
      "name": "Philadelphia",
      "timezone": -4
    },
    {
      "name": "Phnom Penh",
      "timezone": 7
    },
    {
      "name": "Phuket",
      "timezone": 7
    },
    {
      "name": "Pisa",
      "timezone": 2
    },
    {
      "name": "Pittsburgh",
      "timezone": -4
    },
    {
      "name": "Port Hedland",
      "timezone": 8
    },
    {
      "name": "Port Lincoln",
      "timezone": 9.5
    },
    {
      "name": "Port Macquarie",
      "timezone": 10
    },
    {
      "name": "Port Vila",
      "timezone": 11
    },
    {
      "name": "Portland",
      "timezone": -7
    },
    {
      "name": "Porto Alegre",
      "timezone": -3
    },
    {
      "name": "Prague",
      "timezone": 2
    },
    {
      "name": "Prince George",
      "timezone": -7
    },
    {
      "name": "Proserpine",
      "timezone": 10
    },
    {
      "name": "Puerto Vallarta",
      "timezone": -5
    },
    {
      "name": "Punta Arenas",
      "timezone": -3
    },
    {
      "name": "Qingdao",
      "timezone": 8
    },
    {
      "name": "Queenstown",
      "timezone": 10
    },
    {
      "name": "Raleigh",
      "timezone": -4
    },
    {
      "name": "Regina",
      "timezone": -6
    },
    {
      "name": "Reno",
      "timezone": -7
    },
    {
      "name": "Rio De Janeiro",
      "timezone": -3
    },
    {
      "name": "Rockhampton",
      "timezone": 10
    },
    {
      "name": "Roma",
      "timezone": 10
    },
    {
      "name": "Rome",
      "timezone": 2
    },
    {
      "name": "Rotorua",
      "timezone": 12
    },
    {
      "name": "Salt Lake City",
      "timezone": -6
    },
    {
      "name": "San Diego",
      "timezone": -7
    },
    {
      "name": "San Francisco",
      "timezone": -7
    },
    {
      "name": "San Jose",
      "timezone": -7
    },
    {
      "name": "Santiago",
      "timezone": -4
    },
    {
      "name": "Sao Paulo",
      "timezone": -3
    },
    {
      "name": "Sapporo",
      "timezone": 9
    },
    {
      "name": "Saskatoon",
      "timezone": -6
    },
    {
      "name": "Seattle",
      "timezone": -7
    },
    {
      "name": "Seoul",
      "timezone": 9
    },
    {
      "name": "Shanghai",
      "timezone": 8
    },
    {
      "name": "Shenyang",
      "timezone": 8
    },
    {
      "name": "Shenzhen",
      "timezone": 8
    },
    {
      "name": "Shimojishima",
      "timezone": 9
    },
    {
      "name": "Shonai",
      "timezone": 9
    },
    {
      "name": "Siem Reap",
      "timezone": 7
    },
    {
      "name": "Singapore",
      "timezone": 8
    },
    {
      "name": "Stockholm",
      "timezone": 2
    },
    {
      "name": "Sunshine Coast",
      "timezone": 10
    },
    {
      "name": "Surabaya",
      "timezone": 7
    },
    {
      "name": "Sydney",
      "timezone": 10
    },
    {
      "name": "Tahiti",
      "timezone": -10
    },
    {
      "name": "Taipei",
      "timezone": 8
    },
    {
      "name": "Taiyuan",
      "timezone": 8
    },
    {
      "name": "Takamatsu",
      "timezone": 9
    },
    {
      "name": "Tampa",
      "timezone": -4
    },
    {
      "name": "Tamworth",
      "timezone": 10
    },
    {
      "name": "Tel Aviv-Yafo",
      "timezone": 3
    },
    {
      "name": "Terrace",
      "timezone": 8
    },
    {
      "name": "Thunder Bay",
      "timezone": -4
    },
    {
      "name": "Tianjin",
      "timezone": 8
    },
    {
      "name": "Tokyo",
      "timezone": 9
    },
    {
      "name": "Toowoomba",
      "timezone": 10
    },
    {
      "name": "Toronto",
      "timezone": -4
    },
    {
      "name": "Toulouse",
      "timezone": 2
    },
    {
      "name": "Townsville",
      "timezone": 10
    },
    {
      "name": "Tauranga",
      "timezone": 12
    },
    {
      "name": "Urumqi",
      "timezone": 8
    },
    {
      "name": "Vancouver",
      "timezone": -7
    },
    {
      "name": "Venice",
      "timezone": 2
    },
    {
      "name": "Victoria",
      "timezone": -7
    },
    {
      "name": "Vienna",
      "timezone": 2
    },
    {
      "name": "Wagga Wagga",
      "timezone": 10
    },
    {
      "name": "Washington",
      "timezone": -4
    },
    {
      "name": "Weipa",
      "timezone": 10
    },
    {
      "name": "Wellington",
      "timezone": 13
    },
    {
      "name": "Wenzhou",
      "timezone": 8
    },
    {
      "name": "Whyalla",
      "timezone": 9.5
    },
    {
      "name": "Winnipeg",
      "timezone": -5
    },
    {
      "name": "Wuhan",
      "timezone": 8
    },
    {
      "name": "Xi'An",
      "timezone": 8
    },
    {
      "name": "Xiamen",
      "timezone": 8
    },
    {
      "name": "Yangon",
      "timezone": 6.5
    },
    {
      "name": "Yantai",
      "timezone": 8
    },
    {
      "name": "Zagreb",
      "timezone": 2
    },
    {
      "name": "Zurich",
      "timezone": 2
    }
  ]